Dot and Forest plots — create_dot_forest_plot • brcharts
…
#> 
#> $myplotdata1
#> # A tibble: 32 × 12
#>     rate treatment type   factor  outcome        group neword allobs mylab  fobs
#>    <dbl> <fct>     <chr>  <chr>   <chr>          <int>  <dbl>  <dbl> <chr> <dbl>
#>  1  0.46 Drug A    Binary Benefit Primary Effic…     1      5     16 "   …     4
#>  2  0.05 Placebo   Binary Benefit Primary Effic…     1      5     16 "   …     4
#>  3  0.2  Drug B    Binary Benefit Primary Effic…     2      4     16 "   …     4
#>  4  0.06 Placebo   Binary Benefit Primary Effic…     2      4     16 "   …     4
#>  5  0.46 Drug C    Binary Benefit Primary Effic…     3      3     16 "   …     4
#>  6  0.04 Placebo   Binary Benefit Primary Effic…     3      3     16 "   …     4
#>  7  0.14 Drug D    Binary Benefit Primary Effic…     4      2     16 "   …     4
#>  8  0.03 Placebo   Binary Benefit Primary Effic…     4      2     16 "   …     4
#>  9  0.19 Drug A    Binary Risk    Reoccurring AE     1     -2     16 "   …    12
#> 10  0.03 Placebo   Binary Risk    Reoccurring AE     1     -2     16 "   …    12
#> # ℹ 22 more rows
#> # ℹ 2 more variables: adjust_number <int>, mins_y <dbl>
…
